Animal Bites - BIS15L
…
## Warning: One or more parsing issues, see `problems()` for details

## Rows: 9003 Columns: 15
## -- Column specification --------------------------------------------------------
## Delimiter: ","
## chr  (8): SpeciesIDDesc, BreedIDDesc, GenderIDDesc, color, AdvIssuedYNDesc, ...
## dbl  (2): vaccination_yrs, victim_zip
## dttm (5): bite_date, vaccination_date, quarantine_date, head_sent_date, rele...
## 
## i Use `spec()` to retrieve the full column specification for this data.
## i Specify the column types or set `show_col_types = FALSE` to quiet this message.

animal_bites

## # A tibble: 9,003 x 15
##    bite_date           SpeciesIDDesc BreedIDDesc GenderIDDesc color     
##    <dttm>              <chr>         <chr>       <chr>        <chr>     
##  1 1985-05-05 00:00:00 DOG           <NA>        FEMALE       LIG. BROWN
##  2 1986-02-12 00:00:00 DOG           <NA>        UNKNOWN      BRO & BLA 
##  3 1987-05-07 00:00:00 DOG           <NA>        UNKNOWN      <NA>      
##  4 1988-10-02 00:00:00 DOG           <NA>        MALE         BLA & BRO 
##  5 1989-08-29 00:00:00 DOG           <NA>        FEMALE       BLK-WHT   
##  6 1989-11-24 00:00:00 DOG           <NA>        UNKNOWN      <NA>      
##  7 1990-02-08 00:00:00 DOG           <NA>        FEMALE       BLACK/WHIT
##  8 1990-02-22 00:00:00 DOG           <NA>        MALE         BLK-WHT   
##  9 1990-08-02 00:00:00 DOG           <NA>        MALE         BROWN     
## 10 1990-08-19 00:00:00 DOG           <NA>        UNKNOWN      BRN-TAN   
## # ... with 8,993 more rows, and 10 more variables: vaccination_yrs <dbl>,
## #   vaccination_date <dttm>, victim_zip <dbl>, AdvIssuedYNDesc <chr>,
## #   WhereBittenIDDesc <chr>, quarantine_date <dttm>, DispositionIDDesc <chr>,
## #   head_sent_date <dttm>, release_date <dttm>, ResultsIDDesc <chr>

animal_bites<- janitor::clean_names(animal_bites)
animal_bites

## # A tibble: 9,003 x 15
##    bite_date           species_id_desc breed_id_desc gender_id_desc color     
##    <dttm>              <chr>           <chr>         <chr>          <chr>     
##  1 1985-05-05 00:00:00 DOG             <NA>          FEMALE         LIG. BROWN
##  2 1986-02-12 00:00:00 DOG             <NA>          UNKNOWN        BRO & BLA 
##  3 1987-05-07 00:00:00 DOG             <NA>          UNKNOWN        <NA>      
##  4 1988-10-02 00:00:00 DOG             <NA>          MALE           BLA & BRO 
##  5 1989-08-29 00:00:00 DOG             <NA>          FEMALE         BLK-WHT   
##  6 1989-11-24 00:00:00 DOG             <NA>          UNKNOWN        <NA>      
##  7 1990-02-08 00:00:00 DOG             <NA>          FEMALE         BLACK/WHIT
##  8 1990-02-22 00:00:00 DOG             <NA>          MALE           BLK-WHT   
##  9 1990-08-02 00:00:00 DOG             <NA>          MALE           BROWN     
## 10 1990-08-19 00:00:00 DOG             <NA>          UNKNOWN        BRN-TAN   
## # ... with 8,993 more rows, and 10 more variables: vaccination_yrs <dbl>,
## #   vaccination_date <dttm>, victim_zip <dbl>, adv_issued_yn_desc <chr>,
## #   where_bitten_id_desc <chr>, quarantine_date <dttm>,
## #   disposition_id_desc <chr>, head_sent_date <dttm>, release_date <dttm>,
## #   results_id_desc <chr>

animal_bites

## # A tibble: 9,003 x 15
##    bite_date           species_id_desc breed_id_desc gender_id_desc color     
##    <dttm>              <chr>           <chr>         <chr>          <chr>     
##  1 1985-05-05 00:00:00 DOG             <NA>          FEMALE         LIG. BROWN
##  2 1986-02-12 00:00:00 DOG             <NA>          UNKNOWN        BRO & BLA 
##  3 1987-05-07 00:00:00 DOG             <NA>          UNKNOWN        <NA>      
##  4 1988-10-02 00:00:00 DOG             <NA>          MALE           BLA & BRO 
##  5 1989-08-29 00:00:00 DOG             <NA>          FEMALE         BLK-WHT   
##  6 1989-11-24 00:00:00 DOG             <NA>          UNKNOWN        <NA>      
##  7 1990-02-08 00:00:00 DOG             <NA>          FEMALE         BLACK/WHIT
##  8 1990-02-22 00:00:00 DOG             <NA>          MALE           BLK-WHT   
##  9 1990-08-02 00:00:00 DOG             <NA>          MALE           BROWN     
## 10 1990-08-19 00:00:00 DOG             <NA>          UNKNOWN        BRN-TAN   
## # ... with 8,993 more rows, and 10 more variables: vaccination_yrs <dbl>,
## #   vaccination_date <dttm>, victim_zip <dbl>, adv_issued_yn_desc <chr>,
## #   where_bitten_id_desc <chr>, quarantine_date <dttm>,
## #   disposition_id_desc <chr>, head_sent_date <dttm>, release_date <dttm>,
## #   results_id_desc <chr>
…
animal_bites%>%
  select(victim_zip)%>%
  filter(victim_zip != "NA")

## # A tibble: 7,162 x 1
##    victim_zip
##         <dbl>
##  1      40229
##  2      40218
##  3      40219
##  4      40211
##  5      40203
##  6      40215
##  7      40210
##  8      40206
##  9      40291
## 10      40272
## # ... with 7,152 more rows
…
  animal_bites%>%
  filter(species_id_desc=="DOG")%>%
  group_by(breed_id_desc)%>%
  summarise(max_breed= max(n=n() ))%>%
  arrange(desc(max_breed))

## # A tibble: 102 x 2
##    breed_id_desc   max_breed
##    <chr>               <int>
##  1 <NA>                 3274
##  2 PIT BULL             1101
##  3 GERM SHEPHERD         327
##  4 LABRADOR RETRIV       253
##  5 BOXER                 181
##  6 CHICHAUHUA            165
##  7 SHIH TZU              119
##  8 BEAGLE                115
##  9 ROTTWEILER             86
## 10 AAUST. TERR.           78
## # ... with 92 more rows
…
## Rows: 12074 Columns: 18
## -- Column specification --------------------------------------------------------
## Delimiter: ","
## chr  (9): SpeciesIDDesc, BreedIDDesc, breed, GenderIDDesc, color, AdvIssuedY...
## dbl  (3): id, vaccination_yrs, victim_zip
## lgl  (1): DispositionIDDesc
## dttm (5): bite_date, vaccination_date, quarantine_date, head_sent_date, rele...
## 
## i Use `spec()` to retrieve the full column specification for this data.
## i Specify the column types or set `show_col_types = FALSE` to quiet this message.

current_animal_bite

## # A tibble: 12,074 x 18
##        id bite_date           species_id_desc breed_id_desc breed gender_id_desc
##     <dbl> <dttm>              <chr>           <chr>         <chr> <chr>         
##  1 518378 2012-06-30 00:00:00 SKUNK           <NA>          SKUNK MALE          
##  2 518378 2012-06-30 00:00:00 SKUNK           <NA>          SKUNK MALE          
##  3 571527 2014-11-01 00:00:00 DOG             <NA>          BEAG~ FEMALE        
##  4 571527 2014-11-01 00:00:00 DOG             <NA>          BEAG~ FEMALE        
##  5 577969 2015-03-14 00:00:00 DOG             <NA>          <NA>  <NA>          
##  6 577969 2015-03-14 00:00:00 DOG             <NA>          <NA>  <NA>          
##  7 581174 2015-04-26 00:00:00 DOG             BEAGLE        MIX   MALE          
##  8 581174 2015-04-26 00:00:00 DOG             BEAGLE        MIX   MALE          
##  9 585126 2015-06-27 00:00:00 DOG             LABRADOR RET~ MIX   MALE          
## 10 585126 2015-06-27 00:00:00 DOG             LABRADOR RET~ MIX   MALE          
## # ... with 12,064 more rows, and 12 more variables: color <chr>,
## #   vaccination_yrs <dbl>, vaccination_date <dttm>, victim_zip <dbl>,
## #   adv_issued_yn_desc <chr>, where_bitten_id_desc <chr>,
## #   quarantine_date <dttm>, disposition_id_desc <lgl>, head_sent_date <dttm>,
## #   release_date <dttm>, results_id_desc <chr>, followup_yn_desc <chr>
…
current_animal_bite%>%
  filter(species_id_desc=="DOG")%>%
  group_by(breed_id_desc)%>%
  summarise(max_breed= max(n=n() ))%>%
  arrange(desc(max_breed))

## # A tibble: 100 x 2
##    breed_id_desc   max_breed
##    <chr>               <int>
##  1 <NA>                 2922
##  2 PIT BULL             2210
##  3 GERM SHEPHERD         682
##  4 LABRADOR RETRIV       474
##  5 BOXER                 236
##  6 CHICHAUHUA            232
##  7 BEAGLE                214
##  8 ROTTWEILER            172
##  9 AAUST. TERR.          150
## 10 SHIH TZU              134
## # ... with 90 more rows

 top_five_dogs<-
  current_animal_bite%>%
  filter(species_id_desc== "DOG")%>%
  filter(breed_id_desc=="PIT BULL"| breed_id_desc== "GERM SHEPERD"|breed_id_desc== "LABRADOR RETRIV"| breed_id_desc=="BOXER"|breed_id_desc== "CHICHAUHUA")%>%
  arrange(desc(breed_id_desc))
top_five_dogs

## # A tibble: 3,152 x 18
##        id bite_date           species_id_desc breed_id_desc breed gender_id_desc
##     <dbl> <dttm>              <chr>           <chr>         <chr> <chr>         
##  1 621478 2017-01-22 00:00:00 DOG             PIT BULL      <NA>  MALE          
##  2 621478 2017-01-22 00:00:00 DOG             PIT BULL      <NA>  MALE          
##  3 621745 2017-01-21 00:00:00 DOG             PIT BULL      <NA>  MALE          
##  4 621745 2017-01-21 00:00:00 DOG             PIT BULL      <NA>  MALE          
##  5 622765 2017-02-09 00:00:00 DOG             PIT BULL      <NA>  MALE          
##  6 622765 2017-02-09 00:00:00 DOG             PIT BULL      <NA>  MALE          
##  7 623128 2017-02-13 00:00:00 DOG             PIT BULL      <NA>  MALE          
##  8 623128 2017-02-13 00:00:00 DOG             PIT BULL      <NA>  MALE          
##  9 623132 2017-02-12 00:00:00 DOG             PIT BULL      <NA>  MALE          
## 10 623132 2017-02-12 00:00:00 DOG             PIT BULL      <NA>  MALE          
## # ... with 3,142 more rows, and 12 more variables: color <chr>,
## #   vaccination_yrs <dbl>, vaccination_date <dttm>, victim_zip <dbl>,
## #   adv_issued_yn_desc <chr>, where_bitten_id_desc <chr>,
## #   quarantine_date <dttm>, disposition_id_desc <lgl>, head_sent_date <dttm>,
## #   release_date <dttm>, results_id_desc <chr>, followup_yn_desc <chr>

bat_bites_rabies<-
  current_animal_bite%>%
  filter(species_id_desc=="BAT")%>%
  filter(results_id_desc=="POSITIVE")
bat_bites_rabies

## # A tibble: 22 x 18
##        id bite_date species_id_desc breed_id_desc breed gender_id_desc
##     <dbl> <dttm>    <chr>           <chr>         <chr> <chr>         
##  1 679267 NA        BAT             <NA>          <NA>  <NA>          
##  2 679267 NA        BAT             <NA>          <NA>  <NA>          
##  3 682696 NA        BAT             <NA>          <NA>  <NA>          
##  4 682696 NA        BAT             <NA>          <NA>  <NA>          
##  5 682889 NA        BAT             <NA>          <NA>  <NA>          
##  6 682889 NA        BAT             <NA>          <NA>  <NA>          
##  7 683374 NA        BAT             <NA>          <NA>  <NA>          
##  8 683374 NA        BAT             <NA>          <NA>  <NA>          
##  9 700962 NA        BAT             <NA>          <NA>  <NA>          
## 10 700962 NA        BAT             <NA>          <NA>  <NA>          
## # ... with 12 more rows, and 12 more variables: color <chr>,
## #   vaccination_yrs <dbl>, vaccination_date <dttm>, victim_zip <dbl>,
## #   adv_issued_yn_desc <chr>, where_bitten_id_desc <chr>,
## #   quarantine_date <dttm>, disposition_id_desc <lgl>, head_sent_date <dttm>,
## #   release_date <dttm>, results_id_desc <chr>, followup_yn_desc <chr>
…
bat_bites_rabies<-
  current_animal_bite%>%
  filter(species_id_desc=="BAT")%>%
  filter(results_id_desc=="POSITIVE")
bat_bites_rabies

## # A tibble: 22 x 18
##        id bite_date species_id_desc breed_id_desc breed gender_id_desc
##     <dbl> <dttm>    <chr>           <chr>         <chr> <chr>         
##  1 679267 NA        BAT             <NA>          <NA>  <NA>          
##  2 679267 NA        BAT             <NA>          <NA>  <NA>          
##  3 682696 NA        BAT             <NA>          <NA>  <NA>          
##  4 682696 NA        BAT             <NA>          <NA>  <NA>          
##  5 682889 NA        BAT             <NA>          <NA>  <NA>          
##  6 682889 NA        BAT             <NA>          <NA>  <NA>          
##  7 683374 NA        BAT             <NA>          <NA>  <NA>          
##  8 683374 NA        BAT             <NA>          <NA>  <NA>          
##  9 700962 NA        BAT             <NA>          <NA>  <NA>          
## 10 700962 NA        BAT             <NA>          <NA>  <NA>          
## # ... with 12 more rows, and 12 more variables: color <chr>,
## #   vaccination_yrs <dbl>, vaccination_date <dttm>, victim_zip <dbl>,
## #   adv_issued_yn_desc <chr>, where_bitten_id_desc <chr>,
## #   quarantine_date <dttm>, disposition_id_desc <lgl>, head_sent_date <dttm>,
## #   release_date <dttm>, results_id_desc <chr>, followup_yn_desc <chr>

bat_bites

## # A tibble: 674 x 18
##        id bite_date           species_id_desc breed_id_desc breed gender_id_desc
##     <dbl> <dttm>              <chr>           <chr>         <chr> <chr>         
##  1 613464 2016-08-30 00:00:00 BAT             <NA>          BAT   <NA>          
##  2 613464 2016-08-30 00:00:00 BAT             <NA>          BAT   <NA>          
##  3 613467 2016-08-30 00:00:00 BAT             <NA>          BAT   UNKNOWN       
##  4 613467 2016-08-30 00:00:00 BAT             <NA>          BAT   UNKNOWN       
##  5 614725 NA                  BAT             <NA>          <NA>  <NA>          
##  6 614725 NA                  BAT             <NA>          <NA>  <NA>          
##  7 623864 NA                  BAT             <NA>          <NA>  <NA>          
##  8 623864 NA                  BAT             <NA>          <NA>  <NA>          
##  9 624651 NA                  BAT             <NA>          <NA>  <NA>          
## 10 624651 NA                  BAT             <NA>          <NA>  <NA>          
## # ... with 664 more rows, and 12 more variables: color <chr>,
## #   vaccination_yrs <dbl>, vaccination_date <dttm>, victim_zip <dbl>,
## #   adv_issued_yn_desc <chr>, where_bitten_id_desc <chr>,
## #   quarantine_date <dttm>, disposition_id_desc <lgl>, head_sent_date <dttm>,
## #   release_date <dttm>, results_id_desc <chr>, followup_yn_desc <chr>
