Lab 6 Homework
…
fisheries_tidy$catch <- as.numeric(fisheries_tidy$catch)

How many countries are represented in the data? Provide a count and list their names.

fisheries_tidy%>%
  count(country, sort = T)

## # A tibble: 203 x 2
##    country                      n
##    <chr>                    <int>
##  1 United States of America 18080
##  2 Spain                    17482
##  3 Japan                    15429
##  4 Portugal                 11570
##  5 Korea, Republic of       10824
##  6 France                   10639
##  7 Taiwan Province of China  9927
##  8 Indonesia                 9274
##  9 Australia                 8183
## 10 Un. Sov. Soc. Rep.        7084
## # ... with 193 more rows

Refocus the data only to include country, isscaap_taxonomic_group, asfis_species_name, asfis_species_number, year, catch.

fisheries_tidy2 <- fisheries_tidy%>%
  select(country, isscaap_taxonomic_group, asfis_species_name, asfis_species_number, year, catch)
fisheries_tidy2

## # A tibble: 376,771 x 6
##    country isscaap_taxonomic_group asfis_species_n~ asfis_species_n~  year catch
##    <chr>   <chr>                   <chr>            <chr>            <dbl> <dbl>
##  1 Albania Sharks, rays, chimaeras Squatinidae      10903XXXXX        1995    NA
##  2 Albania Sharks, rays, chimaeras Squatinidae      10903XXXXX        1996    53
##  3 Albania Sharks, rays, chimaeras Squatinidae      10903XXXXX        1997    20
##  4 Albania Sharks, rays, chimaeras Squatinidae      10903XXXXX        1998    31
##  5 Albania Sharks, rays, chimaeras Squatinidae      10903XXXXX        1999    30
##  6 Albania Sharks, rays, chimaeras Squatinidae      10903XXXXX        2000    30
##  7 Albania Sharks, rays, chimaeras Squatinidae      10903XXXXX        2001    16
##  8 Albania Sharks, rays, chimaeras Squatinidae      10903XXXXX        2002    79
##  9 Albania Sharks, rays, chimaeras Squatinidae      10903XXXXX        2003     1
## 10 Albania Sharks, rays, chimaeras Squatinidae      10903XXXXX        2004     4
## # ... with 376,761 more rows

Based on the asfis_species_number, how many distinct fish species were caught as part of these data?

fisheries_tidy2%>%
  count(asfis_species_number)

## # A tibble: 1,551 x 2
##    asfis_species_number     n
##    <chr>                <int>
##  1 1020100101             103
##  2 1020100201               2
##  3 10201XXXXX              23
##  4 1030300603              10
##  5 10303XXXXX              54
##  6 1050200201              45
##  7 1050200301               4
##  8 1050200502              26
##  9 1060100301             119
## 10 1060200501              23
## # ... with 1,541 more rows
…
f%>% arrange(desc(catch_total)) 7. Which country caught the most sardines (Sardina pilchardus) between the years 1990-2000?

fisheries_tidy2%>%
  select(country,asfis_species_name , year, catch)%>%
  filter( year>=1990 & year<=2000)%>%
  group_by(asfis_species_name == "Sadina pilchardus")%>%
  summarise(country)

## `summarise()` has grouped output by 'asfis_species_name == "Sadina pilchardus"'. You can override using the `.groups` argument.

## # A tibble: 84,944 x 2
## # Groups:   asfis_species_name == "Sadina pilchardus" [1]
##    `asfis_species_name == "Sadina pilchardus"` country
##    <lgl>                                       <chr>  
##  1 FALSE                                       Albania
##  2 FALSE                                       Albania
##  3 FALSE                                       Albania
##  4 FALSE                                       Albania
##  5 FALSE                                       Albania
##  6 FALSE                                       Albania
##  7 FALSE                                       Albania
##  8 FALSE                                       Albania
##  9 FALSE                                       Albania
## 10 FALSE                                       Albania
## # ... with 84,934 more rows

Which five countries caught the most cephalopods between 2008-2012?

fisheries_tidy2%>%
  select(country, catch, asfis_species_name, year)%>%
  filter( year>=2008 & year<=2012)%>%
  group_by( country,asfis_species_name == "Cephalopod")%>%
  arrange(desc(catch))

## # A tibble: 51,014 x 5
## # Groups:   country, asfis_species_name == "Cephalopod" [199]
##    country            catch asfis_species_name     year `asfis_species_name == ~
##    <chr>              <dbl> <chr>                 <dbl> <lgl>                   
##  1 Viet Nam            9806 Osteichthyes           2010 FALSE                   
##  2 Myanmar             9613 Osteichthyes           2012 FALSE                   
##  3 Viet Nam            8898 Osteichthyes           2009 FALSE                   
##  4 China               8221 Trichiurus lepturus    2011 FALSE                   
##  5 Russian Federation  8188 Theragra chalcogramma  2012 FALSE                   
##  6 Peru                7981 Engraulis ringens      2008 FALSE                   
##  7 Norway              7873 Clupea harengus        2008 FALSE                   
##  8 Norway              7250 Clupea harengus        2009 FALSE                   
##  9 Peru                6880 Engraulis ringens      2012 FALSE                   
## 10 China               6841 Trichiurus lepturus    2010 FALSE                   
## # ... with 51,004 more rows

Which species had the highest catch total between 2008-2012? (hint: Osteichthyes is not a species)

fisheries_tidy2%>%
  filter(year>=2008 & year<= 2012)%>%
  group_by(asfis_species_name,isscaap_taxonomic_group)%>%
  summarise(biggest_catch=sum(catch, na.rm=T))%>%
  arrange(desc(biggest_catch))

## `summarise()` has grouped output by 'asfis_species_name'. You can override using the `.groups` argument.

## # A tibble: 1,474 x 3
## # Groups:   asfis_species_name [1,472]
##    asfis_species_name    isscaap_taxonomic_group       biggest_catch
##    <chr>                 <chr>                                 <dbl>
##  1 Osteichthyes          Marine fishes not identified         107808
##  2 Theragra chalcogramma Cods, hakes, haddocks                 41075
##  3 Engraulis ringens     Herrings, sardines, anchovies         35523
##  4 Katsuwonus pelamis    Tunas, bonitos, billfishes            32153
##  5 Trichiurus lepturus   Miscellaneous demersal fishes         30400
##  6 Clupea harengus       Herrings, sardines, anchovies         28527
##  7 Thunnus albacares     Tunas, bonitos, billfishes            20119
##  8 Scomber japonicus     Miscellaneous pelagic fishes          14723
##  9 Gadus morhua          Cods, hakes, haddocks                 13253
## 10 Thunnus alalunga      Tunas, bonitos, billfishes            12019
## # ... with 1,464 more rows

Use the data to do at least one analysis of your choice.

fisheries_tidy2%>%
  filter(year == 2001)%>%
  group_by(country=="United States", asfis_species_name)%>%
  summarise(USbiggestcatch = sum(catch, na.rm = T))%>%
  arrange(desc(USbiggestcatch))

## `summarise()` has grouped output by 'country == "United States"'. You can override using the `.groups` argument.

## # A tibble: 1,195 x 3
## # Groups:   country == "United States" [1]
##    `country == "United States"` asfis_species_name    USbiggestcatch
##    <lgl>                        <chr>                          <dbl>
##  1 FALSE                        Osteichthyes                   24951
##  2 FALSE                        Trachurus murphyi              10774
##  3 FALSE                        Crustacea                       9937
##  4 FALSE                        Engraulis ringens               9007
##  5 FALSE                        Theragra chalcogramma           8600
##  6 FALSE                        Engraulis japonicus             6666
##  7 FALSE                        Katsuwonus pelamis              5849
##  8 FALSE                        Mollusca                        5167
##  9 FALSE                        Trichiurus lepturus             4971
## 10 FALSE                        Clupea harengus                 4583
## # ... with 1,185 more rows
…
