Lab 11 Homework
…
4. Your answer above doesnt tell the whole story since life expectancy varies by region. Make a summary that shows the min, mean, and max life expectancy by continent for all years represented in the data.

gapminder%>%
  group_by(continent, year)%>%
  summarise(min(lifeExp), mean(lifeExp), max(lifeExp))

## `summarise()` has grouped output by 'continent'. You can override using the `.groups` argument.

## # A tibble: 60 x 5
## # Groups:   continent [5]
##    continent year  `min(lifeExp)` `mean(lifeExp)` `max(lifeExp)`
##    <fct>     <fct>          <dbl>           <dbl>          <dbl>
##  1 Africa    1952            30              39.1           52.7
##  2 Africa    1957            31.6            41.3           58.1
##  3 Africa    1962            32.8            43.3           60.2
##  4 Africa    1967            34.1            45.3           61.6
##  5 Africa    1972            35.4            47.5           64.3
##  6 Africa    1977            36.8            49.6           67.1
##  7 Africa    1982            38.4            51.6           69.9
##  8 Africa    1987            39.9            53.3           71.9
##  9 Africa    1992            23.6            53.6           73.6
## 10 Africa    1997            36.1            53.6           74.8
## # ... with 50 more rows
…
7. Which countries have had the largest population growth since 1952?

gapminder%>%
  group_by(country, year, pop) %>% 
  filter(year==1952 | year==2007) %>% 
  summarise(pop)%>% 
  arrange(desc(pop))

## `summarise()` has grouped output by 'country', 'year'. You can override using the `.groups` argument.

## # A tibble: 284 x 3
## # Groups:   country, year [284]
##    country       year         pop
##    <fct>         <fct>      <int>
##  1 China         2007  1318683096
##  2 India         2007  1110396331
##  3 China         1952   556263527
##  4 India         1952   372000000
##  5 United States 2007   301139947
##  6 Indonesia     2007   223547000
##  7 Brazil        2007   190010647
##  8 Pakistan      2007   169270617
##  9 United States 1952   157553000
## 10 Bangladesh    2007   150448339
## # ... with 274 more rows
…
